…
## Warning: 1 parsing failure.
## row # A tibble: 1 x 5 col     row col     expected               actual file           expected   <int> <chr>   <chr>                  <chr>  <chr>          actual 1  3905 zipcode no trailing characters -1448  'listings.csv' file # A tibble: 1 x 5

part_listings_tab <- whole_listings_tab %>% 
  select(id, host_id, host_since, host_about, host_response_rate,
    host_is_superhost, host_listings_count, host_identity_verified, property_type,
    price, minimum_nights, maximum_nights, availability_30, availability_60,
    availability_90, availability_365, number_of_reviews, review_scores_rating,
    review_scores_accuracy, review_scores_cleanliness, review_scores_checkin,
    review_scores_communication, review_scores_value, reviews_per_month, license,
    room_type, bed_type, longitude, latitude, zipcode, neighbourhood_cleansed,
    bed_type)
part_listings_tab

## # A tibble: 5,207 x 31
##         id host_id host_since host_about host_response_r host_is_superho
##      <int>   <int> <date>     <chr>      <chr>            <chr>           
##  1  1.38e  5.50e 2016-01-17 I'm a pro 100%             t               
##  2  1.67e  3.67e 2015-06-25 <NA>       100%             f               
##  3  1.81e  5.17e 2015-12-18 <NA>       100%             f               
##  4  8.36e  3.28e 2015-05-07 I am a re 100%             t               
##  5  7.90e  2.78e 2012-06-29 I am curr 100%             f               
##  6  1.67e  3.67e 2015-06-25 <NA>       100%             f               
##  7  8.15e  4.30e 2015-08-31 "Born & r 100%             f               
##  8  6.71e  2.44e 2012-05-22 Adventure N/A              f               
##  9  1.76e  7.57e 2011-06-29 Memphis n 100%             f               
## 10  1.26e  2.35e 2014-11-08 Hey folks 100%             t               
## # ... with 5,197 more rows, and 25 more variables:
## #   host_listings_count <int>, host_identity_verified <chr>,
## #   property_type <chr>, price <chr>, minimum_nights <int>,
## #   maximum_nights <int>, availability_30 <int>, availability_60 <int>,
## #   availability_90 <int>, availability_365 <int>,
## #   number_of_reviews <int>, review_scores_rating <int>,
## #   review_scores_accuracy <int>, review_scores_cleanliness <int>,
## #   review_scores_checkin <int>, review_scores_communication <int>,
## #   review_scores_value <int>, reviews_per_month <dbl>, license <chr>,
…
part_listings1_tab <- whole_listings1_tab %>% 
  select(id, host_id, price, number_of_reviews, reviews_per_month,
    calculated_host_listings_count)
part_listings1_tab

## # A tibble: 5,207 x 6
##        id host_id price number_of_revie reviews_per_mon calculated_host
##     <int>   <int> <int>            <int>            <dbl>            <int>
##  1 1.38e  5.50e    56               25            2.57                 1
##  2 1.67e  3.67e    36                0           NA                    3
##  3 1.81e  5.17e    80                4            4.00                 1
##  4 8.36e  3.28e    80               12            0.870                1
##  5 7.90e  2.78e    20               96            1.96                 1
##  6 1.67e  3.67e    28                1            0.280                3
##  7 8.15e  4.30e    45                5            0.920                1
##  8 6.71e  2.44e    48               14            0.630                1
##  9 1.76e  7.57e   149                0           NA                    1
## 10 1.26e  2.35e   331                0           NA                    2
## # ... with 5,197 more rows
…
## Warning in eval(substitute(expr), envir, enclos): NAs introduced by
## coercion

analysis_tab

## # A tibble: 5,207 x 31
##          id  host_id response_rate is_superhost host_listings_count
##       <int>    <int>         <dbl> <lgl>                      <int>
##  1 13824783 55020055           100 T                              1
##  2 16740225 36722941           100 F                              3
##  3 18125245 51669215           100 F                              1
##  4  8362570 32837114           100 T                              1
##  5   789867  2782694           100 F                              1
##  6 16701336 36722941           100 F                              3
##  7  8148031 43018961           100 F                              1
##  8  6713059  2441740            NA F                              1
##  9 17620535   756599           100 F                              1
## 10 12581064 23503681           100 T                              2
## # ... with 5,197 more rows, and 26 more variables:
## #   identity_verified <lgl>, property_type <chr>, cost <dbl>,
## #   minimum_nights <int>, maximum_nights <int>, availability_30 <int>,
## #   availability_60 <int>, availability_90 <int>, availability_365 <int>,
## #   number_of_reviews <int>, review_scores_rating <int>,
## #   review_scores_accuracy <int>, review_scores_cleanliness <int>,
## #   review_scores_checkin <int>, review_scores_communication <int>,
## #   review_scores_value <int>, reviews_per_month <dbl>, has_license <lgl>,
## #   has_about <lgl>, years_as_host <dbl>, room_type <chr>, bed_type <chr>,
…
standardized_tab

## # A tibble: 5,207 x 32
##    z_review       id host_id response_rate is_superhost host_listings_cou
##       <dbl>    <int>   <int>         <dbl> <lgl>                     <int>
##  1   0.823  13824783  5.50e           100 T                             1
##  2  NA      16740225  3.67e           100 F                             3
##  3 - 0.0223 18125245  5.17e           100 F                             1
##  4   0.612   8362570  3.28e           100 T                             1
##  5 - 0.234    789867  2.78e           100 F                             1
##  6   1.03   16701336  3.67e           100 F                             3
##  7   1.03    8148031  4.30e           100 F                             1
##  8   0.400   6713059  2.44e            NA F                             1
##  9  NA      17620535  7.57e           100 F                             1
## 10  NA      12581064  2.35e           100 T                             2
## # ... with 5,197 more rows, and 26 more variables:
## #   identity_verified <lgl>, property_type <chr>, cost <dbl>,
## #   minimum_nights <int>, maximum_nights <int>, availability_30 <int>,
## #   availability_60 <int>, availability_90 <int>, availability_365 <int>,
## #   number_of_reviews <int>, review_scores_accuracy <int>,
## #   review_scores_cleanliness <int>, review_scores_checkin <int>,
## #   review_scores_communication <int>, review_scores_value <int>,
## #   reviews_per_month <dbl>, has_license <lgl>, has_about <lgl>,
## #   years_as_host <dbl>, property_type_group <chr>, room_type <chr>,
…
